%YAML 1.1
%TAG !u! tag:unity3d.com,2011:
--- !u!114 &11400000
MonoBehaviour:
  m_ObjectHideFlags: 0
  m_CorrespondingSourceObject: {fileID: 0}
  m_PrefabInstance: {fileID: 0}
  m_PrefabAsset: {fileID: 0}
  m_GameObject: {fileID: 0}
  m_Enabled: 1
  m_EditorHideFlags: 0
  m_Script: {fileID: 11500000, guid: 468a46d0ae32c3544b7d98094e6448a9, type: 3}
  m_Name: AddressableAssetSettings
  m_EditorClassIdentifier: 
  m_DefaultGroup: 6f5bcce16dc42ff42ac38b11332b3a28
  m_CachedHash:
    serializedVersion: 2
    Hash: 00000000000000000000000000000000
  m_OptimizeCatalogSize: 0
  m_BuildRemoteCatalog: 0
  m_BundleLocalCatalog: 0
  m_CatalogRequestsTimeout: 0
  m_DisableCatalogUpdateOnStart: 0
  m_IgnoreUnsupportedFilesInBuild: 0
  m_UniqueBundleIds: 0
  m_NonRecursiveBuilding: 1
  m_CCDEnabled: 0
  m_maxConcurrentWebRequests: 500
  m_ContiguousBundles: 1
  m_StripUnityVersionFromBundleBuild: 0
  m_DisableVisibleSubAssetRepresentations: 0
  m_ShaderBundleNaming: 0
  m_ShaderBundleCustomNaming: 
  m_MonoScriptBundleNaming: 0
  m_MonoScriptBundleCustomNaming: 
  m_RemoteCatalogBuildPath:
    m_Id: 
  m_RemoteCatalogLoadPath:
    m_Id: 
  m_ContentStateBuildPath: 
  m_BuildAddressablesWithPlayerBuild: 0
  m_overridePlayerVersion: 
  m_GroupAssets:
  - {fileID: 11400000, guid: da1cd777f95a33842b285fa87265dcfd, type: 2}
  - {fileID: 11400000, guid: 98575b1baef28944eba39cf4b03b72b8, type: 2}
  m_BuildSettings:
    m_CompileScriptsInVirtualMode: 0
    m_CleanupStreamingAssetsAfterBuilds: 1
    m_LogResourceManagerExceptions: 1
    m_BundleBuildPath: Temp/com.unity.addressables/AssetBundles
  m_ProfileSettings:
    m_Profiles:
    - m_InheritedParent: 
      m_Id: 253a051ecb7a5e341b649ebaeb22cd97
      m_ProfileName: Default
      m_Values:
      - m_Id: 64812c25ba98a454195e4998c40a4a13
        m_Value: '[UnityEditor.EditorUserBuildSettings.activeBuildTarget]'
      - m_Id: 3dadc308f11182c4e8da8374d19e9bca
        m_Value: '[UnityEngine.AddressableAssets.Addressables.BuildPath]/[BuildTarget]'
      - m_Id: 88bb729c654614d4f9538e8c9f548fae
        m_Value: '{UnityEngine.AddressableAssets.Addressables.RuntimePath}/[BuildTarget]'
      - m_Id: 41c94a8a177566748898fa0b73aae4ea
        m_Value: ServerData/[BuildTarget]
      - m_Id: bad853de6a5f1d44cb82c6829f31e5cf
        m_Value: http://[PrivateIpAddress]:[HostingServicePort]
    m_ProfileEntryNames:
    - m_Id: 64812c25ba98a454195e4998c40a4a13
      m_Name: BuildTarget
      m_InlineUsage: 0
    - m_Id: 3dadc308f11182c4e8da8374d19e9bca
      m_Name: Local.BuildPath
      m_InlineUsage: 0
    - m_Id: 88bb729c654614d4f9538e8c9f548fae
      m_Name: Local.LoadPath
      m_InlineUsage: 0
    - m_Id: 41c94a8a177566748898fa0b73aae4ea
      m_Name: Remote.BuildPath
      m_InlineUsage: 0
    - m_Id: bad853de6a5f1d44cb82c6829f31e5cf
      m_Name: Remote.LoadPath
      m_InlineUsage: 0
    m_ProfileVersion: 1
  m_LabelTable:
    m_LabelNames:
    - default
  m_SchemaTemplates: []
  m_GroupTemplateObjects:
  - {fileID: 11400000, guid: 875dc09c8155e194d914dbc7bac4448d, type: 2}
  m_InitializationObjects: []
  m_CertificateHandlerType:
    m_AssemblyName: 
    m_ClassName: 
  m_ActivePlayerDataBuilderIndex: 3
  m_DataBuilders:
  - {fileID: 11400000, guid: a7f23b2daceca4c41bf23c0a6ac3090e, type: 2}
  - {fileID: 11400000, guid: d8b44b83d6f32f940832f6a75c91dc99, type: 2}
  - {fileID: 11400000, guid: d23ca7c007b9c704aba2ac2efa5f35b9, type: 2}
  - {fileID: 11400000, guid: 8d66cedf76e0e2b4689dcf31948bfb25, type: 2}
  m_ActiveProfileId: 253a051ecb7a5e341b649ebaeb22cd97
  m_HostingServicesManager:
    m_HostingServiceInfos: []
    m_Settings: {fileID: 11400000}
    m_NextInstanceId: 0
    m_RegisteredServiceTypeRefs: []
